% 1. Title: Sunset or other nature photo (red and blue peaks)
%
% 2. Sources: 
% 	(a) Creator: Lorenzo Longo
% 	(b) Generator: Lorenzo Longo
% 	(c) Date: 24/08/2018
% 
%

@relation Sunset/Nature
%Red and blue peaks of the histogram
@attribute redPeaks numeric
@attribute bluePeaks numeric
@attribute Sunset/Nature {sunset, nature}

@DATA
20,1,sunset
1,2,sunset
8,10,sunset
28,1,sunset
2,101,sunset
1,86,sunset
94,20,sunset
3,13,sunset
3,146,sunset
2,1,sunset
6,2,sunset
17,21,sunset
3,87,sunset
138,44,sunset
142,109,sunset
35,10,sunset
23,92,sunset
1,142,sunset
1,37,sunset
1,1,sunset
73,56,sunset
63,147,sunset
1,29,sunset
171,3,sunset
4,5,sunset
115,156,sunset
6,61,sunset
8,17,sunset
13,19,sunset
8,56,sunset
3,22,sunset
3,1,sunset
34,37,sunset
13,13,sunset
1,11,sunset
54,20,sunset
6,1,sunset
1,53,sunset
17,73,sunset
85,52,sunset
1,57,sunset
34,7,sunset
35,29,sunset
9,55,sunset
4,5,sunset
38,24,sunset
95,55,sunset
20,108,sunset
2,39,sunset
2,13,sunset
86,26,sunset
1,132,sunset
1,80,sunset
14,26,sunset
1,80,sunset
1,53,sunset
2,1,sunset
83,16,sunset
177,1,sunset
34,44,sunset
9,2,sunset
132,64,sunset
1,133,sunset
2,33,sunset
68,30,sunset
4,17,sunset
94,86,sunset
64,55,sunset
16,26,sunset
1,1,sunset
3,3,sunset
3,5,sunset
2,2,sunset
46,145,sunset
1,5,sunset
3,5,sunset
3,82,sunset
2,50,sunset
18,16,sunset
2,21,sunset
2,89,sunset
69,84,sunset
1,32,sunset
85,2,sunset
2,39,sunset
155,91,sunset
7,5,sunset
2,49,sunset
7,163,sunset
36,10,sunset
68,47,sunset
1,34,sunset
6,13,sunset
35,29,sunset
68,22,sunset
123,39,sunset
1,100,sunset
4,1,sunset
1,1,sunset
2,1,sunset
99,113,sunset
70,49,sunset
3,10,sunset
6,39,sunset
1,68,sunset
1,32,sunset
1,1,sunset
1,45,sunset
1,1,sunset
6,32,sunset
64,31,sunset
2,35,sunset
6,126,sunset
1,29,sunset
1,76,sunset
15,83,sunset
1,47,sunset
1,113,sunset
2,85,sunset
6,6,sunset
1,1,sunset
6,29,sunset
2,2,sunset
3,2,sunset
23,10,sunset
1,2,nature
116,49,nature
22,31,nature
74,73,nature
18,16,nature
21,11,nature
57,51,nature
26,54,nature
162,1,nature
1,25,nature
162,1,nature
1,25,nature
89,117,nature
199,102,nature
70,25,nature
148,1,nature
29,1,nature
163,6,nature
60,3,nature
160,155,nature
92,48,nature
140,8,nature
119,65,nature
147,9,nature
11,30,nature
113,82,nature
3,1,nature
116,122,nature
123,107,nature
68,98,nature
167,64,nature
33,1,nature
127,57,nature
18,167,nature
134,122,nature
101,87,nature
89,1,nature
177,1,nature
1,39,nature
1,82,nature
119,77,nature
3,1,nature
1,171,nature
14,1,nature
63,53,nature
143,1,nature
1,1,nature
177,1,nature
180,70,nature
153,1,nature
138,32,nature
22,20,nature
125,144,nature
2,131,nature
119,1,nature
94,1,nature
141,1,nature
25,9,nature
3,37,nature
140,1,nature
184,153,nature
1,19,nature
151,77,nature
30,1,nature
195,70,nature
63,52,nature
121,3,nature
90,1,nature
3,20,nature
41,86,nature
4,1,nature
125,4,nature
98,110,nature
110,1,nature
160,114,nature
133,1,nature
88,48,nature
215,180,nature
133,1,nature
7,10,nature
47,8,nature
2,5,nature
171,1,nature
1,1,nature
130,15,nature
132,1,nature
135,41,nature
64,69,nature
120,1,nature
105,1,nature
160,1,nature
119,84,nature
89,68,nature
189,114,nature
86,95,nature
5,1,nature
37,9,nature
73,11,nature
137,120,nature
65,63,nature
83,103,nature
55,70,nature
10,2,nature
123,85,nature
85,4,nature
65,104,nature
115,1,nature
159,113,nature
123,108,nature
2,38,nature
1,1,nature
86,95,nature
130,15,nature
200,203,nature
216,146,nature
87,46,nature
2,2,nature
124,60,nature
190,1,nature
48,1,nature
96,63,nature
80,65,nature
2,1,nature
191,124,nature
21,27,nature
145,90,nature
